{
  "project_info": {
    "project_number": "959309375504",
    "firebase_url": "https://enqaz-4fe6e.firebaseio.com",
    "project_id": "enqaz-4fe6e",
    "storage_bucket": "enqaz-4fe6e.appspot.com"
  },
  "client": [
    {
      "client_info": {
        "mobilesdk_app_id": "1:959309375504:android:138038cdf0cb0fd0",
        "android_client_info": {
          "package_name": "com.betahubs.enqaz"
        }
      },
      "oauth_client": [
        {
          "client_id": "959309375504-fj0nqcatnf9rp9p3ocu429jr4v9j811c.apps.googleusercontent.com",
          "client_type": 1,
          "android_info": {
            "package_name": "com.betahubs.enqaz",
            "certificate_hash": "f297f9b59fe64a49bf7b97075b85167058c537cc"
          }
        },
        {
          "client_id": "959309375504-neu8bi4hnv774c4ksk2kj1mr7ujrvlfp.apps.googleusercontent.com",
          "client_type": 1,
          "android_info": {
            "package_name": "com.betahubs.enqaz",
            "certificate_hash": "c8ab07d11c8277fb8d4a65c25108d63b0147aa2a"
          }
        },
        {
          "client_id": "959309375504-3ju3cgbh2lfiui3v0qa85hgmct5766tk.apps.googleusercontent.com",
          "client_type": 3
        }
      ],
      "api_key": [
        {
          "current_key": "AIzaSyD6567DqfSxo_pKVbAqmaN1FkLF_8AehqY"
        }
      ],
      "services": {
        "analytics_service": {
          "status": 1
        },
        "appinvite_service": {
          "status": 2,
          "other_platform_oauth_client": [
            {
              "client_id": "959309375504-fijv16ldb7vr5a3b9ugrvcp1ats85mvf.apps.googleusercontent.com",
              "client_type": 3
            },
            {
              "client_id": "959309375504-e9aj5fccafsmdmu78qaqm0bl92i5dom0.apps.googleusercontent.com",
              "client_type": 2,
              "ios_info": {
                "bundle_id": "Betahubs.Enqaz"
              }
            }
          ]
        },
        "ads_service": {
          "status": 2
        }
      }
    },
    {
      "client_info": {
        "mobilesdk_app_id": "1:959309375504:android:94b00078a5bbb574",
        "android_client_info": {
          "package_name": "com.betahubs.enqazdriver"
        }
      },
      "oauth_client": [
        {
          "client_id": "959309375504-dppcose1riq3tjeb5g9jom0vgd7ejs2j.apps.googleusercontent.com",
          "client_type": 1,
          "android_info": {
            "package_name": "com.betahubs.enqazdriver",
            "certificate_hash": "524f4d82da12295176004b6b2d2dbbb15d6669b8"
          }
        },
        {
          "client_id": "959309375504-3ju3cgbh2lfiui3v0qa85hgmct5766tk.apps.googleusercontent.com",
          "client_type": 3
        }
      ],
      "api_key": [
        {
          "current_key": "AIzaSyD6567DqfSxo_pKVbAqmaN1FkLF_8AehqY"
        }
      ],
      "services": {
        "analytics_service": {
          "status": 1
        },
        "appinvite_service": {
          "status": 2,
          "other_platform_oauth_client": [
            {
              "client_id": "959309375504-fijv16ldb7vr5a3b9ugrvcp1ats85mvf.apps.googleusercontent.com",
              "client_type": 3
            },
            {
              "client_id": "959309375504-e9aj5fccafsmdmu78qaqm0bl92i5dom0.apps.googleusercontent.com",
              "client_type": 2,
              "ios_info": {
                "bundle_id": "Betahubs.Enqaz"
              }
            }
          ]
        },
        "ads_service": {
          "status": 2
        }
      }
    }
  ],
  "configuration_version": "1"
}